-- Merging decision tree log ---
manifest
ADDED from /home/hectora/TS/taxidriver/debugTrace/src/main/AndroidManifest.xml:1:1-16:12
INJECTED from /home/hectora/TS/taxidriver/debugTrace/src/main/AndroidManifest.xml:1:1-16:12
INJECTED from /home/hectora/TS/taxidriver/debugTrace/src/main/AndroidManifest.xml:1:1-16:12
INJECTED from /home/hectora/TS/taxidriver/debugTrace/src/main/AndroidManifest.xml:1:1-16:12
INJECTED from /home/hectora/TS/taxidriver/debugTrace/src/main/AndroidManifest.xml:1:1-16:12
INJECTED from /home/hectora/TS/taxidriver/debugTrace/src/main/AndroidManifest.xml:1:1-16:12
INJECTED from /home/hectora/TS/taxidriver/debugTrace/src/main/AndroidManifest.xml:1:1-16:12
	package
		ADDED from /home/hectora/TS/taxidriver/debugTrace/src/main/AndroidManifest.xml:2:5-35
		INJECTED from /home/hectora/TS/taxidriver/debugTrace/src/main/AndroidManifest.xml
		INJECTED from /home/hectora/TS/taxidriver/debugTrace/src/main/AndroidManifest.xml
	android:versionName
		ADDED from /home/hectora/TS/taxidriver/debugTrace/src/main/AndroidManifest.xml:4:5-30
		INJECTED from /home/hectora/TS/taxidriver/debugTrace/src/main/AndroidManifest.xml
		INJECTED from /home/hectora/TS/taxidriver/debugTrace/src/main/AndroidManifest.xml
	xmlns:android
		ADDED from /home/hectora/TS/taxidriver/debugTrace/src/main/AndroidManifest.xml:1:11-69
	android:versionCode
		ADDED from /home/hectora/TS/taxidriver/debugTrace/src/main/AndroidManifest.xml:3:5-28
		INJECTED from /home/hectora/TS/taxidriver/debugTrace/src/main/AndroidManifest.xml
		INJECTED from /home/hectora/TS/taxidriver/debugTrace/src/main/AndroidManifest.xml
uses-permission#android.permission.INTERNET
ADDED from /home/hectora/TS/taxidriver/debugTrace/src/main/AndroidManifest.xml:6:5-66
	android:name
		ADDED from /home/hectora/TS/taxidriver/debugTrace/src/main/AndroidManifest.xml:6:22-64
application
ADDED from /home/hectora/TS/taxidriver/debugTrace/src/main/AndroidManifest.xml:8:5-14:19
	android:label
		ADDED from /home/hectora/TS/taxidriver/debugTrace/src/main/AndroidManifest.xml:8:18-50
activity#com.toxsl.trace.TraceActivity
ADDED from /home/hectora/TS/taxidriver/debugTrace/src/main/AndroidManifest.xml:9:9-13:20
	android:label
		ADDED from /home/hectora/TS/taxidriver/debugTrace/src/main/AndroidManifest.xml:11:13-45
	android:name
		ADDED from /home/hectora/TS/taxidriver/debugTrace/src/main/AndroidManifest.xml:10:13-57
uses-sdk
INJECTED from /home/hectora/TS/taxidriver/debugTrace/src/main/AndroidManifest.xml reason: use-sdk injection requested
INJECTED from /home/hectora/TS/taxidriver/debugTrace/src/main/AndroidManifest.xml
INJECTED from /home/hectora/TS/taxidriver/debugTrace/src/main/AndroidManifest.xml
INJECTED from /home/hectora/TS/taxidriver/debugTrace/src/main/AndroidManifest.xml
INJECTED from /home/hectora/TS/taxidriver/debugTrace/src/main/AndroidManifest.xml
	android:targetSdkVersion
		INJECTED from /home/hectora/TS/taxidriver/debugTrace/src/main/AndroidManifest.xml
		ADDED from /home/hectora/TS/taxidriver/debugTrace/src/main/AndroidManifest.xml
		INJECTED from /home/hectora/TS/taxidriver/debugTrace/src/main/AndroidManifest.xml
	android:minSdkVersion
		INJECTED from /home/hectora/TS/taxidriver/debugTrace/src/main/AndroidManifest.xml
		ADDED from /home/hectora/TS/taxidriver/debugTrace/src/main/AndroidManifest.xml
		INJECTED from /home/hectora/TS/taxidriver/debugTrace/src/main/AndroidManifest.xml
